Hello from rank 3, on nid00546. (core affinity = 17,49)
Hello from rank 7, on nid00546. (core affinity = 19,51)
Hello from rank 8, on nid00546. (core affinity = 4,36)
Hello from rank 12, on nid00546. (core affinity = 6,38)
Hello from rank 14, on nid00546. (core affinity = 7,39)
Hello from rank 15, on nid00546. (core affinity = 23,55)
Hello from rank 16, on nid00546. (core affinity = 8,40)
Hello from rank 17, on nid00546. (core affinity = 24,56)
Hello from rank 19, on nid00546. (core affinity = 25,57)
Hello from rank 20, on nid00546. (core affinity = 10,42)
Hello from rank 21, on nid00546. (core affinity = 26,58)
Hello from rank 22, on nid00546. (core affinity = 11,43)
Hello from rank 24, on nid00546. (core affinity = 12,44)
Hello from rank 26, on nid00546. (core affinity = 13,45)
Hello from rank 27, on nid00546. (core affinity = 29,61)
Hello from rank 29, on nid00546. (core affinity = 30,62)
Hello from rank 30, on nid00546. (core affinity = 15,47)
Hello from rank 31, on nid00546. (core affinity = 31,63)
Hello from rank 0, on nid00546. (core affinity = 0,32)
Hello from rank 1, on nid00546. (core affinity = 16,48)
Hello from rank 2, on nid00546. (core affinity = 1,33)
Hello from rank 4, on nid00546. (core affinity = 2,34)
Hello from rank 5, on nid00546. (core affinity = 18,50)
Hello from rank 6, on nid00546. (core affinity = 3,35)
Hello from rank 9, on nid00546. (core affinity = 20,52)
Hello from rank 10, on nid00546. (core affinity = 5,37)
Hello from rank 11, on nid00546. (core affinity = 21,53)
Hello from rank 13, on nid00546. (core affinity = 22,54)
Hello from rank 18, on nid00546. (core affinity = 9,41)
Hello from rank 23, on nid00546. (core affinity = 27,59)
Hello from rank 25, on nid00546. (core affinity = 28,60)
Hello from rank 28, on nid00546. (core affinity = 14,46)
Hello from rank 32, on nid00547. (core affinity = 0,32)
Hello from rank 33, on nid00547. (core affinity = 16,48)
Hello from rank 35, on nid00547. (core affinity = 17,49)
Hello from rank 42, on nid00547. (core affinity = 5,37)
Hello from rank 50, on nid00547. (core affinity = 9,41)
Hello from rank 52, on nid00547. (core affinity = 10,42)
Hello from rank 54, on nid00547. (core affinity = 11,43)
Hello from rank 56, on nid00547. (core affinity = 12,44)
Hello from rank 62, on nid00547. (core affinity = 15,47)
Hello from rank 34, on nid00547. (core affinity = 1,33)
Hello from rank 36, on nid00547. (core affinity = 2,34)
Hello from rank 37, on nid00547. (core affinity = 18,50)
Hello from rank 38, on nid00547. (core affinity = 3,35)
Hello from rank 39, on nid00547. (core affinity = 19,51)
Hello from rank 40, on nid00547. (core affinity = 4,36)
Hello from rank 41, on nid00547. (core affinity = 20,52)
Hello from rank 43, on nid00547. (core affinity = 21,53)
Hello from rank 44, on nid00547. (core affinity = 6,38)
Hello from rank 45, on nid00547. (core affinity = 22,54)
Hello from rank 46, on nid00547. (core affinity = 7,39)
Hello from rank 47, on nid00547. (core affinity = 23,55)
Hello from rank 48, on nid00547. (core affinity = 8,40)
Hello from rank 49, on nid00547. (core affinity = 24,56)
Hello from rank 51, on nid00547. (core affinity = 25,57)
Hello from rank 53, on nid00547. (core affinity = 26,58)
Hello from rank 55, on nid00547. (core affinity = 27,59)
Hello from rank 57, on nid00547. (core affinity = 28,60)
Hello from rank 58, on nid00547. (core affinity = 13,45)
Hello from rank 59, on nid00547. (core affinity = 29,61)
Hello from rank 60, on nid00547. (core affinity = 14,46)
Hello from rank 61, on nid00547. (core affinity = 30,62)
Hello from rank 63, on nid00547. (core affinity = 31,63)
